A11273281218018205761998000000003638019ABARCA,CARINA RUTH            022014244009100030003                                      
A11273281218018205692357000000000636478ALCAYAGA ZALAZAR,MARIA CARLA  027916771009100030003                                      
A11273281218009206166797000000000826997AMARFIL ROMERO,NANCY LUCIA    032572713009100030003                                      
A11273281218018207125071000000000871086BALMACEDA (2),LAURA DEL ROSARIO024234067009100030003                                     
A11273281218018207139278000000000675765BENEGA ONTIVEROS,CARINA       002448620009100030003                                      
A11273281218009206153988000000001697773BERTAGGIA,MARIELA INES        020505143009100030003                                      
A11273281218009206175283000000002581300CHAVEZ,IRIS CAROLINA          022815220009100030003                                      
A11273281218018207128971000000001174897CHICAHUALA,DEBORA             017051765009100030003                                      
A11273281218009206122258000000000871086CHIRINO (1),PATRICIA          028691809009100030003                                      
A11273281218018207100474000000004858700CONCA,MARIA ALEJANDRA         021357574009100030003                                      
A11273281218009206119708000000000110000DIAZ,GLADYS                   016018360009100030003                                      
A11273281218018207015066000000001704231DIAZ,SILVANA DEL VALLE        028708712009100030003                                      
A11273281218002209501220000000000792625ESPEJO (1),MARIA EVA          022289869009100030003                                      
A11273281218018207122498000000001359201ESPINOLA,ELSA VERONICA        017991231009100030003                                      
A11273281218018206019188000000000871086FLORES (3),CARINA ISABEL      025118458009100030003                                      
A11273281218018205682248000000002098758FUNES,SABRINA ABRIL           041054838009100030003                                      
A11273281218018205899549000000000787753GARCIA BAZAN,MARIA EUGENIA    029740855009100030003                                      
A11273281218500206017319000000000723262GIMENEZ MARQUEZ,NORMA LILIANA 026678818009100030003                                      
A11273281218009206111896000000000008500GOMEZ (2),ADA ROSA            014991576009100030003                                      
A11273281218009206203262000000001431149GONZALEZ,ANA ROSA             092412038009100030003                                      
A11273281218009205871046000000001481217GUAJARDO,MYRIAM               016385054009100030003                                      
A11273281218500205968292000000000796121GUERRRA,KEILA YAEL            035506044009100030003                                      
A11273281218018207139111000000001248066GUEVARA,ALEJANDRA PATRICIA    021610789009100030003                                      
A11273281218009206199619000000001690672HIJANO MENA,PATRICIA F.       018595395009100030003                                      
A11273281218018205918505000000000737397LENCINA,GENESIS TAMARA        039994787009100030003                                      
A11273281218018207013699000000000766126LOPEZ CUENCA,MARIA VALERIA    026791038009100030003                                      
A11273281218018205657970000000001284206LORENZO,MIRTA GLADYS          017210266009100030003                                      
A11273281218018207008053000000003278557MARTIN CASTRO,MARIA FERNANDA  018751460009100030003                                      
A11273281218009206157898000000004669063MERLO CONCA (1),EMILSE FABIANA020275897009100030003                                      
A11273281218002209504860000000000000000MONARDEZ HEREDIA (2),DORA U.  018506898009100030003                                      
A11273281218018205893909000000001126191MUNOZ ,IVANA ISABEL           026204021009100030003                                      
A11273281218009206161228000000000795588MUNOZ,MARIA DE LOS ANGELES    023380409009100030003                                      
A11273281218009206156291000000000643530ORELLANO,MARIA CONCEPCION     029740801009100030003                                      
A11273281218009206133719000000000030000ORIHUELA,GLADYS NOEMI         017924705009100030003                                      
A11273281218018207111922000000001023791OTAROLA,ANDREA VIVIANA        027784913009100030003                                      
A11273281218003205731986000000000986171PAEZ SARMIENTO,JAQUELINA IVON 030738205009100030003                                      
A11273281218018207015020000000001291011PERALTA,VANESA DEL CARMEN     026878675009100030003                                      
A11273281218009206159047000000002834790PEREZ,NORA ESTELA             013666007009100030003                                      
A11273281218009206198207000000000000000PONCE SALTO,CECILIA MARIANA   037742384009100030003                                      
A11273281218009206142762000000000944728PORRES,ROSA FERNANDA          024972586009100030003                                      
A11273281218018207002552000000000045000QUEVEDO (3),ANGELA SILVANA    021358611009100030003                                      
A11273281218018207116301000000002289187RASPO,ALEJANDRA               023938382009100030003                                      
A11273281218018207127224000000001132104RECABARREN,PAOLA NANCY        029058350009100030003                                      
A11273281218009206011821000000001093012RECIO BOGNI,MARIA PAULA       030932624009100030003                                      
A11273281218018207121385000000001349933RETAMAR (2),SILVIA SUSANA     023364540009100030003                                      
A11273281218009206139373000000001511617ROMERO,ALEJANDRA B.           024658158009100030003                                      
A11273281218018205723255000000000980809RUIZ,MARIA EUGENIA            021592128009100030003                                      
A11273281218009206138837000000000111550SCHMALL,LAURA EUGENIA         012779623009100030003                                      
A11273281218009206111285000000000010000SEGARRA (1),STELLA            012340005009100030003                                      
A11273281218009206120665000000001457581SERNA,STELLA MARYS            013917638009100030003                                      
A11273281218018207137566000000001169554SIREROL MONSERRAT,ELIANA      027685197009100030003                                      
A11273281218009206120078000000003274293TEJADA,DEOLINDA               023168163009100030003                                      
A11273281218009206171717000000002095622TKACIK,JULIETA                024260833009100030003                                      
A11273281218018207110211000000001124944YOSSA AGUILAR (1),MARIA DANIELA024426189009100030003                                     
A11273281218018207021881000000000840078ZAPATA DOMINGUEZ,ALICIA V.    029557843009100030003                                      
