A0200800113001108054922000000006983672BACA DE M ESTER AIDA          8102951091900001175227102951099 430040185222              01
A0200800113019000028990000000005546594SIRERA DE D ADRIANA M         8133306391900001175227133306396 430040719734              01
A0200800113001100830269000000005546594VALDEZ SERGIO ORLANDO         7102234601900001175220102234600 430040184226              01
A0200800113019000036667000000024111046ARACENA, LAURA I.             8134402741900001175227134402747 430022639574              01
